…
```
## The following objects are masked from 'package:base':
## 
##     intersect, setdiff, setequal, union
```

```r
total.steps <- select(ds, date, steps) %>% 
                 group_by(date) %>% 
                   summarize(value = sum(steps, na.rm = TRUE))                                    
total.steps
```

```
## # A tibble: 61 x 2
##          date value
##        <date> <int>
##  1 2012-10-01     0
##  2 2012-10-02   126
##  3 2012-10-03 11352
##  4 2012-10-04 12116
##  5 2012-10-05 13294
##  6 2012-10-06 15420
##  7 2012-10-07 11015
##  8 2012-10-08     0
##  9 2012-10-09 12811
## 10 2012-10-10  9900
## # ... with 51 more rows
```
…
----------------------------------------------

>1. Make a time series plot (i.e. type = "l") of the 5-minute interval (x-axis) and the average number of steps taken, averaged across all days (y-axis)

Calculate the average number of steps across all days per each interval:

```r
mean.steps <- select(ds, interval, steps) %>% 
                group_by(interval) %>% 
                  summarize(value = mean(steps, na.rm = TRUE))                                    
mean.steps
```

```
## # A tibble: 288 x 2
##    interval     value
##       <int>     <dbl>
##  1        0 1.7169811
##  2        5 0.3396226
##  3       10 0.1320755
##  4       15 0.1509434
##  5       20 0.0754717
##  6       25 2.0943396
##  7       30 0.5283019
##  8       35 0.8679245
##  9       40 0.0000000
## 10       45 1.4716981
## # ... with 278 more rows
```
…
```
## [1] 2304
```

>2. Devise a strategy for filling in all of the missing values in the dataset. 

I choose `mean.steps` a pre-calculated values of mean for each interval to fill all NAs.

```r
mean.steps
```

```
## # A tibble: 288 x 2
##    interval     value
##       <int>     <dbl>
##  1        0 1.7169811
##  2        5 0.3396226
##  3       10 0.1320755
##  4       15 0.1509434
##  5       20 0.0754717
##  6       25 2.0943396
##  7       30 0.5283019
##  8       35 0.8679245
##  9       40 0.0000000
## 10       45 1.4716981
## # ... with 278 more rows
```
>3. Create a new dataset that is equal to the original dataset but with the missing data filled in.


```r
ds.imputed <- 
filter(ds, is.na(steps)) %>% 
  inner_join(mean.steps, by=c("interval")) %>% 
    mutate(steps = ceiling(value)) %>% 
     select(-value) %>% 
       union_all(ds[!is.na(ds$steps),])
ds.imputed
```

```
## # A tibble: 17,568 x 3
##    steps       date interval
##    <dbl>     <date>    <int>
##  1     2 2012-10-01        0
##  2     1 2012-10-01        5
##  3     1 2012-10-01       10
##  4     1 2012-10-01       15
##  5     1 2012-10-01       20
##  6     3 2012-10-01       25
##  7     1 2012-10-01       30
##  8     1 2012-10-01       35
##  9     0 2012-10-01       40
## 10     2 2012-10-01       45
## # ... with 17,558 more rows
```
…
----------------------------------------------------------------------------

>1. Create a new factor variable in the dataset with two levels – “weekday” and “weekend” indicating whether a given date is a weekday or weekend day.


```r
ds.imputed <- mutate(ds.imputed, 
                     day.type = factor(ifelse(weekdays(date, TRUE) %in% c("Sat", "Sun"), 
                                              "weekend",
                                              "weekday")))
ds.imputed
```

```
## # A tibble: 17,568 x 4
##    steps       date interval day.type
##    <dbl>     <date>    <int>   <fctr>
##  1     2 2012-10-01        0  weekday
##  2     1 2012-10-01        5  weekday
##  3     1 2012-10-01       10  weekday
##  4     1 2012-10-01       15  weekday
##  5     1 2012-10-01       20  weekday
##  6     3 2012-10-01       25  weekday
##  7     1 2012-10-01       30  weekday
##  8     1 2012-10-01       35  weekday
##  9     0 2012-10-01       40  weekday
## 10     2 2012-10-01       45  weekday
## # ... with 17,558 more rows
```
…
